Economic Connectedness
…
Economic Connectedness

    Author

             David Kane 

# A tibble: 3,089 × 3
# Groups:   state_name [51]
   state_name ec_county pop2018
   <chr>          <dbl>   <dbl>
 1 Alabama        0.721   55200
 2 Alabama        0.743  208107
 3 Alabama        0.414   25782
 4 Alabama        0.632   22527
 5 Alabama        0.726   57645
 6 Alabama        0.355   10352
 7 Alabama        0.460   20025
 8 Alabama        0.602  115098
 9 Alabama        0.498   33826
10 Alabama        0.605   25853
# ℹ 3,079 more rows
…
